....................
----------------------------------------------------------------------
Ran 20 tests in 0.002s

OK
Name               Stmts   Miss Branch BrPart  Cover   Missing
--------------------------------------------------------------
Diplomacy.py          70      0     44      0   100%
TestDiplomacy.py     109      0      0      0   100%
--------------------------------------------------------------
TOTAL                179      0     44      0   100%
